State 42 conflicts: 3 shift/reduce


Grammar

    0 $accept: blockstatement $end

    1 blockstatement: blockstatement statement
    2               | blockstatement '\n'
    3               | blockstatement STUPIDENDLINE
    4               | statement

    5 statement: assignment ';'
    6          | outputstatement ';'
    7          | whilestatement

    8 assignment: ID '=' expresion

    9 expresion: operand
   10          | expresion '+' operand
   11          | expresion '-' operand
   12          | expresion '*' operand
   13          | expresion '/' operand
   14          | expresion '%' operand

   15 operand: ID
   16        | CONST
   17        | INPUT

   18 outputstatement: PRINT '(' expresion ')'

   19 whilestatement: WHILE condition ':' linestatement

   20 condition: expresion '<' expresion
   21          | expresion RELATIONOP expresion

   22 linestatement: statement
   23              | linestatement statement


Terminals, with rules where they appear

$end (0) 0
'\n' (10) 2
'%' (37) 14
'(' (40) 18
')' (41) 18
'*' (42) 12
'+' (43) 10
'-' (45) 11
'/' (47) 13
':' (58) 19
';' (59) 5 6
'<' (60) 20
'=' (61) 8
error (256)
PRINT (258) 18
ID (259) 8 15
CONST (260) 16
WHILE (261) 19
RELATIONOP (262) 21
STUPIDENDLINE (263) 3
INPUT (264) 17


Nonterminals, with rules where they appear

$accept (22)
    on left: 0
blockstatement (23)
    on left: 1 2 3 4, on right: 0 1 2 3
statement (24)
    on left: 5 6 7, on right: 1 4 22 23
assignment (25)
    on left: 8, on right: 5
expresion (26)
    on left: 9 10 11 12 13 14, on right: 8 10 11 12 13 14 18 20 21
operand (27)
    on left: 15 16 17, on right: 9 10 11 12 13 14
outputstatement (28)
    on left: 18, on right: 6
whilestatement (29)
    on left: 19, on right: 7
condition (30)
    on left: 20 21, on right: 19
linestatement (31)
    on left: 22 23, on right: 19 23


State 0

    0 $accept: . blockstatement $end

    PRINT  shift, and go to state 1
    ID     shift, and go to state 2
    WHILE  shift, and go to state 3

    blockstatement   go to state 4
    statement        go to state 5
    assignment       go to state 6
    outputstatement  go to state 7
    whilestatement   go to state 8


State 1

   18 outputstatement: PRINT . '(' expresion ')'

    '('  shift, and go to state 9


State 2

    8 assignment: ID . '=' expresion

    '='  shift, and go to state 10


State 3

   19 whilestatement: WHILE . condition ':' linestatement

    ID     shift, and go to state 11
    CONST  shift, and go to state 12
    INPUT  shift, and go to state 13

    expresion  go to state 14
    operand    go to state 15
    condition  go to state 16


State 4

    0 $accept: blockstatement . $end
    1 blockstatement: blockstatement . statement
    2               | blockstatement . '\n'
    3               | blockstatement . STUPIDENDLINE

    $end           shift, and go to state 17
    PRINT          shift, and go to state 1
    ID             shift, and go to state 2
    WHILE          shift, and go to state 3
    STUPIDENDLINE  shift, and go to state 18
    '\n'           shift, and go to state 19

    statement        go to state 20
    assignment       go to state 6
    outputstatement  go to state 7
    whilestatement   go to state 8


State 5

    4 blockstatement: statement .

    $default  reduce using rule 4 (blockstatement)


State 6

    5 statement: assignment . ';'

    ';'  shift, and go to state 21


State 7

    6 statement: outputstatement . ';'

    ';'  shift, and go to state 22


State 8

    7 statement: whilestatement .

    $default  reduce using rule 7 (statement)


State 9

   18 outputstatement: PRINT '(' . expresion ')'

    ID     shift, and go to state 11
    CONST  shift, and go to state 12
    INPUT  shift, and go to state 13

    expresion  go to state 23
    operand    go to state 15


State 10

    8 assignment: ID '=' . expresion

    ID     shift, and go to state 11
    CONST  shift, and go to state 12
    INPUT  shift, and go to state 13

    expresion  go to state 24
    operand    go to state 15


State 11

   15 operand: ID .

    $default  reduce using rule 15 (operand)


State 12

   16 operand: CONST .

    $default  reduce using rule 16 (operand)


State 13

   17 operand: INPUT .

    $default  reduce using rule 17 (operand)


State 14

   10 expresion: expresion . '+' operand
   11          | expresion . '-' operand
   12          | expresion . '*' operand
   13          | expresion . '/' operand
   14          | expresion . '%' operand
   20 condition: expresion . '<' expresion
   21          | expresion . RELATIONOP expresion

    RELATIONOP  shift, and go to state 25
    '+'         shift, and go to state 26
    '-'         shift, and go to state 27
    '*'         shift, and go to state 28
    '/'         shift, and go to state 29
    '%'         shift, and go to state 30
    '<'         shift, and go to state 31


State 15

    9 expresion: operand .

    $default  reduce using rule 9 (expresion)


State 16

   19 whilestatement: WHILE condition . ':' linestatement

    ':'  shift, and go to state 32


State 17

    0 $accept: blockstatement $end .

    $default  accept


State 18

    3 blockstatement: blockstatement STUPIDENDLINE .

    $default  reduce using rule 3 (blockstatement)


State 19

    2 blockstatement: blockstatement '\n' .

    $default  reduce using rule 2 (blockstatement)


State 20

    1 blockstatement: blockstatement statement .

    $default  reduce using rule 1 (blockstatement)


State 21

    5 statement: assignment ';' .

    $default  reduce using rule 5 (statement)


State 22

    6 statement: outputstatement ';' .

    $default  reduce using rule 6 (statement)


State 23

   10 expresion: expresion . '+' operand
   11          | expresion . '-' operand
   12          | expresion . '*' operand
   13          | expresion . '/' operand
   14          | expresion . '%' operand
   18 outputstatement: PRINT '(' expresion . ')'

    '+'  shift, and go to state 26
    '-'  shift, and go to state 27
    '*'  shift, and go to state 28
    '/'  shift, and go to state 29
    '%'  shift, and go to state 30
    ')'  shift, and go to state 33


State 24

    8 assignment: ID '=' expresion .
   10 expresion: expresion . '+' operand
   11          | expresion . '-' operand
   12          | expresion . '*' operand
   13          | expresion . '/' operand
   14          | expresion . '%' operand

    '+'  shift, and go to state 26
    '-'  shift, and go to state 27
    '*'  shift, and go to state 28
    '/'  shift, and go to state 29
    '%'  shift, and go to state 30

    $default  reduce using rule 8 (assignment)


State 25

   21 condition: expresion RELATIONOP . expresion

    ID     shift, and go to state 11
    CONST  shift, and go to state 12
    INPUT  shift, and go to state 13

    expresion  go to state 34
    operand    go to state 15


State 26

   10 expresion: expresion '+' . operand

    ID     shift, and go to state 11
    CONST  shift, and go to state 12
    INPUT  shift, and go to state 13

    operand  go to state 35


State 27

   11 expresion: expresion '-' . operand

    ID     shift, and go to state 11
    CONST  shift, and go to state 12
    INPUT  shift, and go to state 13

    operand  go to state 36


State 28

   12 expresion: expresion '*' . operand

    ID     shift, and go to state 11
    CONST  shift, and go to state 12
    INPUT  shift, and go to state 13

    operand  go to state 37


State 29

   13 expresion: expresion '/' . operand

    ID     shift, and go to state 11
    CONST  shift, and go to state 12
    INPUT  shift, and go to state 13

    operand  go to state 38


State 30

   14 expresion: expresion '%' . operand

    ID     shift, and go to state 11
    CONST  shift, and go to state 12
    INPUT  shift, and go to state 13

    operand  go to state 39


State 31

   20 condition: expresion '<' . expresion

    ID     shift, and go to state 11
    CONST  shift, and go to state 12
    INPUT  shift, and go to state 13

    expresion  go to state 40
    operand    go to state 15


State 32

   19 whilestatement: WHILE condition ':' . linestatement

    PRINT  shift, and go to state 1
    ID     shift, and go to state 2
    WHILE  shift, and go to state 3

    statement        go to state 41
    assignment       go to state 6
    outputstatement  go to state 7
    whilestatement   go to state 8
    linestatement    go to state 42


State 33

   18 outputstatement: PRINT '(' expresion ')' .

    $default  reduce using rule 18 (outputstatement)


State 34

   10 expresion: expresion . '+' operand
   11          | expresion . '-' operand
   12          | expresion . '*' operand
   13          | expresion . '/' operand
   14          | expresion . '%' operand
   21 condition: expresion RELATIONOP expresion .

    '+'  shift, and go to state 26
    '-'  shift, and go to state 27
    '*'  shift, and go to state 28
    '/'  shift, and go to state 29
    '%'  shift, and go to state 30

    $default  reduce using rule 21 (condition)


State 35

   10 expresion: expresion '+' operand .

    $default  reduce using rule 10 (expresion)


State 36

   11 expresion: expresion '-' operand .

    $default  reduce using rule 11 (expresion)


State 37

   12 expresion: expresion '*' operand .

    $default  reduce using rule 12 (expresion)


State 38

   13 expresion: expresion '/' operand .

    $default  reduce using rule 13 (expresion)


State 39

   14 expresion: expresion '%' operand .

    $default  reduce using rule 14 (expresion)


State 40

   10 expresion: expresion . '+' operand
   11          | expresion . '-' operand
   12          | expresion . '*' operand
   13          | expresion . '/' operand
   14          | expresion . '%' operand
   20 condition: expresion '<' expresion .

    '+'  shift, and go to state 26
    '-'  shift, and go to state 27
    '*'  shift, and go to state 28
    '/'  shift, and go to state 29
    '%'  shift, and go to state 30

    $default  reduce using rule 20 (condition)


State 41

   22 linestatement: statement .

    $default  reduce using rule 22 (linestatement)


State 42

   19 whilestatement: WHILE condition ':' linestatement .
   23 linestatement: linestatement . statement

    PRINT  shift, and go to state 1
    ID     shift, and go to state 2
    WHILE  shift, and go to state 3

    PRINT     [reduce using rule 19 (whilestatement)]
    ID        [reduce using rule 19 (whilestatement)]
    WHILE     [reduce using rule 19 (whilestatement)]
    $default  reduce using rule 19 (whilestatement)

    statement        go to state 43
    assignment       go to state 6
    outputstatement  go to state 7
    whilestatement   go to state 8


State 43

   23 linestatement: linestatement statement .

    $default  reduce using rule 23 (linestatement)
